(module ArduinoProMicro (layer F.Cu) (tedit 5C95949D)
  (fp_text reference REF** (at 0 0.5) (layer F.SilkS)
    (effects (font (size 1 1) (thickness 0.15)))
  )
  (fp_text value ArduinoProMicro (at 3 13) (layer F.Fab)
    (effects (font (size 1 1) (thickness 0.15)))
  )
  (fp_text user SCL (at 11.557 17.526) (layer F.SilkS)
    (effects (font (size 1 1) (thickness 0.15)))
  )
  (fp_text user SDA (at 8.382 17.653) (layer F.SilkS)
    (effects (font (size 1 1) (thickness 0.15)))
  )
  (fp_text user A7 (at 1.524 17.526) (layer F.SilkS)
    (effects (font (size 1 1) (thickness 0.15)))
  )
  (fp_text user A6 (at -1.27 17.526) (layer F.SilkS)
    (effects (font (size 1 1) (thickness 0.15)))
  )
  (fp_text user BLK (at 22.479 6.604) (layer F.SilkS)
    (effects (font (size 1 1) (thickness 0.15)))
  )
  (fp_text user RXI (at 20.193 16.002) (layer F.SilkS)
    (effects (font (size 1 1) (thickness 0.15)))
  )
  (fp_text user VCC (at 19.939 13.462) (layer F.SilkS)
    (effects (font (size 1 1) (thickness 0.15)))
  )
  (fp_text user GND (at 19.812 10.922) (layer F.SilkS)
    (effects (font (size 1 1) (thickness 0.15)))
  )
  (fp_text user TX0 (at 20.193 18.542) (layer F.SilkS)
    (effects (font (size 1 1) (thickness 0.15)))
  )
  (fp_text user GRN (at 22.479 22.733) (layer F.SilkS)
    (effects (font (size 1 1) (thickness 0.15)))
  )
  (fp_text user RAW (at 20.193 20.574) (layer F.SilkS)
    (effects (font (size 1 1) (thickness 0.15)))
  )
  (fp_text user GND (at 17.399 20.574) (layer F.SilkS)
    (effects (font (size 1 1) (thickness 0.15)))
  )
  (fp_text user RST (at 14.732 20.574) (layer F.SilkS)
    (effects (font (size 1 1) (thickness 0.15)))
  )
  (fp_text user VCC (at 12.065 20.574) (layer F.SilkS)
    (effects (font (size 1 1) (thickness 0.15)))
  )
  (fp_text user A3 (at 9.398 20.574) (layer F.SilkS)
    (effects (font (size 1 1) (thickness 0.15)))
  )
  (fp_text user A2 (at 6.858 20.574) (layer F.SilkS)
    (effects (font (size 1 1) (thickness 0.15)))
  )
  (fp_text user A1 (at 4.572 20.574) (layer F.SilkS)
    (effects (font (size 1 1) (thickness 0.15)))
  )
  (fp_text user A0 (at 2.286 20.762) (layer F.SilkS)
    (effects (font (size 1 1) (thickness 0.15)))
  )
  (fp_text user 13 (at -0.127 20.762) (layer F.SilkS)
    (effects (font (size 1 1) (thickness 0.15)))
  )
  (fp_text user 12 (at -3.175 20.574) (layer F.SilkS)
    (effects (font (size 1 1) (thickness 0.15)))
  )
  (fp_text user 11 (at -5.461 20.574) (layer F.SilkS)
    (effects (font (size 1 1) (thickness 0.15)))
  )
  (fp_text user 10 (at -7.874 20.574) (layer F.SilkS)
    (effects (font (size 1 1) (thickness 0.15)))
  )
  (fp_text user 9 (at -8.128 8.636) (layer F.SilkS)
    (effects (font (size 1 1) (thickness 0.15)))
  )
  (fp_text user 8 (at -5.588 8.636) (layer F.SilkS)
    (effects (font (size 1 1) (thickness 0.15)))
  )
  (fp_text user 7 (at -2.921 8.636) (layer F.SilkS)
    (effects (font (size 1 1) (thickness 0.15)))
  )
  (fp_text user 6 (at -0.508 8.636) (layer F.SilkS)
    (effects (font (size 1 1) (thickness 0.15)))
  )
  (fp_text user 5 (at 2.032 8.636) (layer F.SilkS)
    (effects (font (size 1 1) (thickness 0.15)))
  )
  (fp_text user 4 (at 4.572 8.636) (layer F.SilkS)
    (effects (font (size 1 1) (thickness 0.15)))
  )
  (fp_text user 3 (at 6.985 8.636) (layer F.SilkS)
    (effects (font (size 1 1) (thickness 0.15)))
  )
  (fp_text user 2 (at 9.525 8.636) (layer F.SilkS)
    (effects (font (size 1 1) (thickness 0.15)))
  )
  (fp_text user GND (at 12.319 8.636) (layer F.SilkS)
    (effects (font (size 1 1) (thickness 0.15)))
  )
  (fp_text user RST (at 15.113 8.636) (layer F.SilkS)
    (effects (font (size 1 1) (thickness 0.15)))
  )
  (fp_text user RXI (at 17.653 8.636) (layer F.SilkS)
    (effects (font (size 1 1) (thickness 0.15)))
  )
  (fp_text user TX0 (at 20.193 8.636) (layer F.SilkS)
    (effects (font (size 1 1) (thickness 0.15)))
  )
  (fp_line (start -9 5.278) (end -9 23.778) (layer F.SilkS) (width 0.15))
  (fp_line (start 24 5.278) (end -9 5.278) (layer F.SilkS) (width 0.15))
  (fp_line (start 24 5.278) (end 24 23.778) (layer F.SilkS) (width 0.15))
  (fp_line (start -9 23.778) (end 24 23.778) (layer F.SilkS) (width 0.15))
  (pad 29 thru_hole circle (at 22.5 20.889) (size 2.032 2.032) (drill 1.016) (layers *.Cu *.Mask))
  (pad 30 thru_hole circle (at 22.5 18.389) (size 2.032 2.032) (drill 1.016) (layers *.Cu *.Mask))
  (pad 31 thru_hole circle (at 22.5 15.889) (size 2.032 2.032) (drill 1.016) (layers *.Cu *.Mask))
  (pad 32 thru_hole circle (at 22.5 13.389) (size 2.032 2.032) (drill 1.016) (layers *.Cu *.Mask))
  (pad 33 thru_hole circle (at 22.5 10.889) (size 2.032 2.032) (drill 1.016) (layers *.Cu *.Mask))
  (pad 34 thru_hole circle (at 22.5 8.389) (size 2.032 2.032) (drill 1.016) (layers *.Cu *.Mask))
  (pad 28 thru_hole circle (at 11.43 19.278) (size 2.032 2.032) (drill 1.016) (layers *.Cu *.Mask))
  (pad 27 thru_hole circle (at 8.89 19.278) (size 2.032 2.032) (drill 1.016) (layers *.Cu *.Mask))
  (pad 26 thru_hole circle (at 1.27 19.278) (size 2.032 2.032) (drill 1.016) (layers *.Cu *.Mask))
  (pad 25 thru_hole circle (at -1.27 19.278) (size 2.032 2.032) (drill 1.016) (layers *.Cu *.Mask))
  (pad 24 thru_hole circle (at 20 22.278) (size 2.032 2.032) (drill 1.016) (layers *.Cu *.Mask))
  (pad 23 thru_hole circle (at 17.5 22.278) (size 2.032 2.032) (drill 1.016) (layers *.Cu *.Mask))
  (pad 22 thru_hole circle (at 15 22.278) (size 2.032 2.032) (drill 1.016) (layers *.Cu *.Mask))
  (pad 21 thru_hole circle (at 12.5 22.278) (size 2.032 2.032) (drill 1.016) (layers *.Cu *.Mask))
  (pad 20 thru_hole circle (at 10 22.278) (size 2.032 2.032) (drill 1.016) (layers *.Cu *.Mask))
  (pad 19 thru_hole circle (at 7.5 22.278) (size 2.032 2.032) (drill 1.016) (layers *.Cu *.Mask))
  (pad 18 thru_hole circle (at 5 22.278) (size 2.032 2.032) (drill 1.016) (layers *.Cu *.Mask))
  (pad 17 thru_hole circle (at 2.5 22.278) (size 2.032 2.032) (drill 1.016) (layers *.Cu *.Mask))
  (pad 16 thru_hole circle (at 0 22.278) (size 2.032 2.032) (drill 1.016) (layers *.Cu *.Mask))
  (pad 15 thru_hole circle (at -2.5 22.278) (size 2.032 2.032) (drill 1.016) (layers *.Cu *.Mask))
  (pad 14 thru_hole circle (at -5 22.278) (size 2.032 2.032) (drill 1.016) (layers *.Cu *.Mask))
  (pad 13 thru_hole circle (at -7.5 22.278) (size 2.032 2.032) (drill 1.016) (layers *.Cu *.Mask))
  (pad 11 thru_hole circle (at -5 6.778) (size 2.032 2.032) (drill 1.016) (layers *.Cu *.Mask))
  (pad 12 thru_hole circle (at -7.5 6.778) (size 2.032 2.032) (drill 1.016) (layers *.Cu *.Mask))
  (pad 10 thru_hole circle (at -2.5 6.778) (size 2.032 2.032) (drill 1.016) (layers *.Cu *.Mask))
  (pad 1 thru_hole circle (at 20 6.778) (size 2.032 2.032) (drill 1.016) (layers *.Cu *.Mask))
  (pad 2 thru_hole circle (at 17.5 6.778) (size 2.032 2.032) (drill 1.016) (layers *.Cu *.Mask))
  (pad 3 thru_hole circle (at 15 6.778) (size 2.032 2.032) (drill 1.016) (layers *.Cu *.Mask))
  (pad 4 thru_hole circle (at 12.5 6.778) (size 2.032 2.032) (drill 1.016) (layers *.Cu *.Mask))
  (pad 5 thru_hole circle (at 10 6.778) (size 2.032 2.032) (drill 1.016) (layers *.Cu *.Mask))
  (pad 6 thru_hole circle (at 7.5 6.778) (size 2.032 2.032) (drill 1.016) (layers *.Cu *.Mask))
  (pad 7 thru_hole circle (at 5 6.778) (size 2.032 2.032) (drill 1.016) (layers *.Cu *.Mask))
  (pad 8 thru_hole circle (at 2.5 6.778) (size 2.032 2.032) (drill 1.016) (layers *.Cu *.Mask))
  (pad 9 thru_hole circle (at 0 6.778) (size 2.032 2.032) (drill 1.016) (layers *.Cu *.Mask))
)
